aoc2025-final/wave.vcd
$version Generated by VerilatedVcd $end
$timescale 1s $end
 $scope module TOP $end
  $var wire 1 ) clk $end
  $var wire 1 * rst $end
  $var wire 1 + start $end
  $var wire 32 , src_addr [31:0] $end
  $var wire 32 - dst_addr [31:0] $end
  $var wire 16 . length [15:0] $end
  $var wire 1 / done $end
  $var wire 1 0 notify_host $end
  $var wire 32 1 mem_read_addr [31:0] $end
  $var wire 32 2 mem_read_data [31:0] $end
  $var wire 16 3 mem_length [15:0] $end
  $var wire 32 4 glb_r_addr [31:0] $end
  $var wire 32 5 glb_dout [31:0] $end
  $scope module top $end
   $var wire 32 7 ADDR_WIDTH [31:0] $end
   $var wire 32 7 DATA_WIDTH [31:0] $end
   $var wire 32 8 GLB_DATA_WIDTH [31:0] $end
   $var wire 32 9 GLB_DEPTH [31:0] $end
   $var wire 32 7 GLB_ADDR_WIDTH [31:0] $end
   $var wire 1 ) clk $end
   $var wire 1 * rst $end
   $var wire 1 + start $end
   $var wire 32 , src_addr [31:0] $end
   $var wire 32 - dst_addr [31:0] $end
   $var wire 16 . length [15:0] $end
   $var wire 1 / done $end
   $var wire 1 0 notify_host $end
   $var wire 32 1 mem_read_addr [31:0] $end
   $var wire 32 2 mem_read_data [31:0] $end
   $var wire 16 3 mem_length [15:0] $end
   $var wire 32 4 glb_r_addr [31:0] $end
   $var wire 32 5 glb_dout [31:0] $end
   $var wire 32 # dma_write_addr [31:0] $end
   $var wire 1 $ dma_write_en $end
   $var wire 32 2 dma_write_data [31:0] $end
   $scope module dma_inst $end
    $var wire 32 7 ADDR_WIDTH [31:0] $end
    $var wire 32 7 DATA_WIDTH [31:0] $end
    $var wire 1 ) clk $end
    $var wire 1 * rst $end
    $var wire 1 + start $end
    $var wire 32 , src_addr [31:0] $end
    $var wire 32 - dst_addr [31:0] $end
    $var wire 16 . length [15:0] $end
    $var wire 1 / done $end
    $var wire 1 0 notify_host $end
    $var wire 32 1 mem_read_addr [31:0] $end
    $var wire 32 2 mem_read_data [31:0] $end
    $var wire 16 3 mem_length [15:0] $end
    $var wire 32 # mem_write_addr [31:0] $end
    $var wire 1 $ mem_write_en $end
    $var wire 32 2 mem_write_data [31:0] $end
    $var wire 3 % cs [2:0] $end
    $var wire 3 6 ns [2:0] $end
    $var wire 16 & counter [15:0] $end
    $var wire 16 ' len [15:0] $end
    $var wire 32 ( read_ptr [31:0] $end
    $var wire 32 # write_ptr [31:0] $end
   $upscope $end
   $scope module glb_inst $end
    $var wire 32 8 DATA_WIDTH [31:0] $end
    $var wire 32 9 DEPTH [31:0] $end
    $var wire 32 7 ADDR_WIDTH [31:0] $end
    $var wire 1 ) clk $end
    $var wire 1 * rst $end
    $var wire 1 $ we $end
    $var wire 32 4 r_addr [31:0] $end
    $var wire 32 # w_addr [31:0] $end
    $var wire 32 2 din [31:0] $end
    $var wire 32 5 dout [31:0] $end
   $upscope $end
  $upscope $end
 $upscope $end
$enddefinitions $end


#0
b00000000000000000000000000000000 #
0$
b000 %
b0000000000000000 &
b0000000000000000 '
b00000000000000000000000000000000 (
1)
1*
0+
b00000000000000000000000000000000 ,
b00000000000000000000000000000000 -
b0000000000000000 .
0/
00
b00000000000000000000000000000000 1
b00000000000000000000000000000000 2
b0000000000000000 3
b00000000000000000000000000000000 4
b00000000000000000000000000000000 5
b000 6
b00000000000000000000000000100000 7
b00000000000000000000000000001000 8
b00000000000000000000000001000000 9
#1
0)
#2
b001 %
b0000000011000000 '
1)
0*
1+
b0000000011000000 .
10
b0000000011000000 3
b010 6
#3
0)
#4
b010 %
1)
0+
00
b011 6
#5
0)
#6
1$
b011 %
1)
b00000000000000000000000001111000 2
b010 6
#7
0)
#8
b00000000000000000000000000000100 #
0$
b010 %
b0000000000000001 &
b00000000000000000000000000000100 (
1)
b00000000000000000000000000000100 1
b011 6
#9
0)
#10
1$
b011 %
1)
b00000000000000000000000001111001 2
b00000000000000000000000001111000 5
b010 6
#11
0)
#12
b00000000000000000000000000001000 #
0$
b010 %
b0000000000000010 &
b00000000000000000000000000001000 (
1)
b00000000000000000000000000001000 1
b011 6
#13
0)
#14
1$
b011 %
1)
b00000000000000000000000001111010 2
b010 6
#15
0)
#16
b00000000000000000000000000001100 #
0$
b010 %
b0000000000000011 &
b00000000000000000000000000001100 (
1)
b00000000000000000000000000001100 1
b011 6
#17
0)
#18
1$
b011 %
1)
b00000000000000000000000001111011 2
b010 6
#19
0)
#20
b00000000000000000000000000010000 #
0$
b010 %
b0000000000000100 &
b00000000000000000000000000010000 (
1)
b00000000000000000000000000010000 1
b011 6
#21
0)
#22
1$
b011 %
1)
b00000000000000000000000001111100 2
b010 6
#23
0)
#24
b00000000000000000000000000010100 #
0$
b010 %
b0000000000000101 &
b00000000000000000000000000010100 (
1)
b00000000000000000000000000010100 1
b011 6
#25
0)
#26
1$
b011 %
1)
b00000000000000000000000001111101 2
b010 6
#27
0)
#28
b00000000000000000000000000011000 #
0$
b010 %
b0000000000000110 &
b00000000000000000000000000011000 (
1)
b00000000000000000000000000011000 1
b011 6
#29
0)
#30
1$
b011 %
1)
b00000000000000000000000001111110 2
b010 6
#31
0)
#32
b00000000000000000000000000011100 #
0$
b010 %
b0000000000000111 &
b00000000000000000000000000011100 (
1)
b00000000000000000000000000011100 1
b011 6
#33
0)
#34
1$
b011 %
1)
b00000000000000000000000001111111 2
b010 6
#35
0)
#36
b00000000000000000000000000100000 #
0$
b010 %
b0000000000001000 &
b00000000000000000000000000100000 (
1)
b00000000000000000000000000100000 1
b011 6
#37
0)
#38
1$
b011 %
1)
b00000000000000000000000010000000 2
b010 6
#39
0)
#40
b00000000000000000000000000100100 #
0$
b010 %
b0000000000001001 &
b00000000000000000000000000100100 (
1)
b00000000000000000000000000100100 1
b011 6
#41
0)
#42
1$
b011 %
1)
b00000000000000000000000010000001 2
b010 6
#43
0)
#44
b00000000000000000000000000101000 #
0$
b010 %
b0000000000001010 &
b00000000000000000000000000101000 (
1)
b00000000000000000000000000101000 1
b011 6
#45
0)
#46
1$
b011 %
1)
b00000000000000000000000010000010 2
b010 6
#47
0)
#48
b00000000000000000000000000101100 #
0$
b010 %
b0000000000001011 &
b00000000000000000000000000101100 (
1)
b00000000000000000000000000101100 1
b011 6
#49
0)
#50
1$
b011 %
1)
b00000000000000000000000010000011 2
b010 6
#51
0)
#52
b00000000000000000000000000110000 #
0$
b010 %
b0000000000001100 &
b00000000000000000000000000110000 (
1)
b00000000000000000000000000110000 1
b011 6
#53
0)
#54
1$
b011 %
1)
b00000000000000000000000010000100 2
b010 6
#55
0)
#56
b00000000000000000000000000110100 #
0$
b010 %
b0000000000001101 &
b00000000000000000000000000110100 (
1)
b00000000000000000000000000110100 1
b011 6
#57
0)
#58
1$
b011 %
1)
b00000000000000000000000010000101 2
b010 6
#59
0)
#60
b00000000000000000000000000111000 #
0$
b010 %
b0000000000001110 &
b00000000000000000000000000111000 (
1)
b00000000000000000000000000111000 1
b011 6
#61
0)
#62
1$
b011 %
1)
b00000000000000000000000010000110 2
b010 6
#63
0)
#64
b00000000000000000000000000111100 #
0$
b010 %
b0000000000001111 &
b00000000000000000000000000111100 (
1)
b00000000000000000000000000111100 1
b011 6
#65
0)
#66
1$
b011 %
1)
b00000000000000000000000010000111 2
b010 6
#67
0)
#68
b00000000000000000000000001000000 #
0$
b010 %
b0000000000010000 &
b00000000000000000000000001000000 (
1)
b00000000000000000000000001000000 1
b011 6
#69
0)
#70
1$
b011 %
1)
b00000000000000000000000010001000 2
b010 6
#71
0)
#72
b00000000000000000000000001000100 #
0$
b010 %
b0000000000010001 &
b00000000000000000000000001000100 (
1)
b00000000000000000000000001000100 1
b011 6
#73
0)
#74
1$
b011 %
1)
b00000000000000000000000010001001 2
b010 6
#75
0)
#76
b00000000000000000000000001001000 #
0$
b010 %
b0000000000010010 &
b00000000000000000000000001001000 (
1)
b00000000000000000000000001001000 1
b011 6
#77
0)
#78
1$
b011 %
1)
b00000000000000000000000010001010 2
b010 6
#79
0)
#80
b00000000000000000000000001001100 #
0$
b010 %
b0000000000010011 &
b00000000000000000000000001001100 (
1)
b00000000000000000000000001001100 1
b011 6
#81
0)
#82
1$
b011 %
1)
b00000000000000000000000010001011 2
b010 6
#83
0)
#84
b00000000000000000000000001010000 #
0$
b010 %
b0000000000010100 &
b00000000000000000000000001010000 (
1)
b00000000000000000000000001010000 1
b011 6
#85
0)
#86
1$
b011 %
1)
b00000000000000000000000010000010 2
b010 6
#87
0)
#88
b00000000000000000000000001010100 #
0$
b010 %
b0000000000010101 &
b00000000000000000000000001010100 (
1)
b00000000000000000000000001010100 1
b011 6
#89
0)
#90
1$
b011 %
1)
b00000000000000000000000010000011 2
b010 6
#91
0)
#92
b00000000000000000000000001011000 #
0$
b010 %
b0000000000010110 &
b00000000000000000000000001011000 (
1)
b00000000000000000000000001011000 1
b011 6
#93
0)
#94
1$
b011 %
1)
b00000000000000000000000010000100 2
b010 6
#95
0)
#96
b00000000000000000000000001011100 #
0$
b010 %
b0000000000010111 &
b00000000000000000000000001011100 (
1)
b00000000000000000000000001011100 1
b011 6
#97
0)
#98
1$
b011 %
1)
b00000000000000000000000010000101 2
b010 6
#99
0)
#100
b00000000000000000000000001100000 #
0$
b010 %
b0000000000011000 &
b00000000000000000000000001100000 (
1)
b00000000000000000000000001100000 1
b011 6
#101
0)
#102
1$
b011 %
1)
b00000000000000000000000010000110 2
b010 6
#103
0)
#104
b00000000000000000000000001100100 #
0$
b010 %
b0000000000011001 &
b00000000000000000000000001100100 (
1)
b00000000000000000000000001100100 1
b011 6
#105
0)
#106
1$
b011 %
1)
b00000000000000000000000010000111 2
b010 6
#107
0)
#108
b00000000000000000000000001101000 #
0$
b010 %
b0000000000011010 &
b00000000000000000000000001101000 (
1)
b00000000000000000000000001101000 1
b011 6
#109
0)
#110
1$
b011 %
1)
b00000000000000000000000010001000 2
b010 6
#111
0)
#112
b00000000000000000000000001101100 #
0$
b010 %
b0000000000011011 &
b00000000000000000000000001101100 (
1)
b00000000000000000000000001101100 1
b011 6
#113
0)
#114
1$
b011 %
1)
b00000000000000000000000010001001 2
b010 6
#115
0)
#116
b00000000000000000000000001110000 #
0$
b010 %
b0000000000011100 &
b00000000000000000000000001110000 (
1)
b00000000000000000000000001110000 1
b011 6
#117
0)
#118
1$
b011 %
1)
b00000000000000000000000010001010 2
b010 6
#119
0)
#120
b00000000000000000000000001110100 #
0$
b010 %
b0000000000011101 &
b00000000000000000000000001110100 (
1)
b00000000000000000000000001110100 1
b011 6
#121
0)
#122
1$
b011 %
1)
b00000000000000000000000010001011 2
b010 6
#123
0)
#124
b00000000000000000000000001111000 #
0$
b010 %
b0000000000011110 &
b00000000000000000000000001111000 (
1)
b00000000000000000000000001111000 1
b011 6
#125
0)
#126
1$
b011 %
1)
b00000000000000000000000010000010 2
b010 6
#127
0)
#128
b00000000000000000000000001111100 #
0$
b010 %
b0000000000011111 &
b00000000000000000000000001111100 (
1)
b00000000000000000000000001111100 1
b011 6
#129
0)
#130
1$
b011 %
1)
b00000000000000000000000010000011 2
b010 6
#131
0)
#132
b00000000000000000000000010000000 #
0$
b010 %
b0000000000100000 &
b00000000000000000000000010000000 (
1)
b00000000000000000000000010000000 1
b011 6
#133
0)
#134
1$
b011 %
1)
b00000000000000000000000010000100 2
b010 6
#135
0)
#136
b00000000000000000000000010000100 #
0$
b010 %
b0000000000100001 &
b00000000000000000000000010000100 (
1)
b00000000000000000000000010000100 1
b011 6
#137
0)
#138
1$
b011 %
1)
b00000000000000000000000010000101 2
b010 6
#139
0)
#140
b00000000000000000000000010001000 #
0$
b010 %
b0000000000100010 &
b00000000000000000000000010001000 (
1)
b00000000000000000000000010001000 1
b011 6
#141
0)
#142
1$
b011 %
1)
b00000000000000000000000010000110 2
b010 6
#143
0)
#144
b00000000000000000000000010001100 #
0$
b010 %
b0000000000100011 &
b00000000000000000000000010001100 (
1)
b00000000000000000000000010001100 1
b011 6
#145
0)
#146
1$
b011 %
1)
b00000000000000000000000010000111 2
b010 6
#147
0)
#148
b00000000000000000000000010010000 #
0$
b010 %
b0000000000100100 &
b00000000000000000000000010010000 (
1)
b00000000000000000000000010010000 1
b011 6
#149
0)
#150
1$
b011 %
1)
b00000000000000000000000010001000 2
b010 6
#151
0)
#152
b00000000000000000000000010010100 #
0$
b010 %
b0000000000100101 &
b00000000000000000000000010010100 (
1)
b00000000000000000000000010010100 1
b011 6
#153
0)
#154
1$
b011 %
1)
b00000000000000000000000010001001 2
b010 6
#155
0)
#156
b00000000000000000000000010011000 #
0$
b010 %
b0000000000100110 &
b00000000000000000000000010011000 (
1)
b00000000000000000000000010011000 1
b011 6
#157
0)
#158
1$
b011 %
1)
b00000000000000000000000010001010 2
b010 6
#159
0)
#160
b00000000000000000000000010011100 #
0$
b010 %
b0000000000100111 &
b00000000000000000000000010011100 (
1)
b00000000000000000000000010011100 1
b011 6
#161
0)
#162
1$
b011 %
1)
b00000000000000000000000010001011 2
b010 6
#163
0)
#164
b00000000000000000000000010100000 #
0$
b010 %
b0000000000101000 &
b00000000000000000000000010100000 (
1)
b00000000000000000000000010100000 1
b011 6
#165
0)
#166
1$
b011 %
1)
b00000000000000000000000010001100 2
b010 6
#167
0)
#168
b00000000000000000000000010100100 #
0$
b010 %
b0000000000101001 &
b00000000000000000000000010100100 (
1)
b00000000000000000000000010100100 1
b011 6
#169
0)
#170
1$
b011 %
1)
b00000000000000000000000010001101 2
b010 6
#171
0)
#172
b00000000000000000000000010101000 #
0$
b010 %
b0000000000101010 &
b00000000000000000000000010101000 (
1)
b00000000000000000000000010101000 1
b011 6
#173
0)
#174
1$
b011 %
1)
b00000000000000000000000010001110 2
b010 6
#175
0)
#176
b00000000000000000000000010101100 #
0$
b010 %
b0000000000101011 &
b00000000000000000000000010101100 (
1)
b00000000000000000000000010101100 1
b011 6
#177
0)
#178
1$
b011 %
1)
b00000000000000000000000010001111 2
b010 6
#179
0)
#180
b00000000000000000000000010110000 #
0$
b010 %
b0000000000101100 &
b00000000000000000000000010110000 (
1)
b00000000000000000000000010110000 1
b011 6
#181
0)
#182
1$
b011 %
1)
b00000000000000000000000010010000 2
b010 6
#183
0)
#184
b00000000000000000000000010110100 #
0$
b010 %
b0000000000101101 &
b00000000000000000000000010110100 (
1)
b00000000000000000000000010110100 1
b011 6
#185
0)
#186
1$
b011 %
1)
b00000000000000000000000010010001 2
b010 6
#187
0)
#188
b00000000000000000000000010111000 #
0$
b010 %
b0000000000101110 &
b00000000000000000000000010111000 (
1)
b00000000000000000000000010111000 1
b011 6
#189
0)
#190
1$
b011 %
1)
b00000000000000000000000010010010 2
b010 6
#191
0)
#192
b00000000000000000000000010111100 #
0$
b010 %
b0000000000101111 &
b00000000000000000000000010111100 (
1)
b00000000000000000000000010111100 1
b011 6
#193
0)
#194
1$
b011 %
1)
b00000000000000000000000010010011 2
b010 6
#195
0)
#196
b00000000000000000000000011000000 #
0$
b010 %
b0000000000110000 &
b00000000000000000000000011000000 (
1)
b00000000000000000000000011000000 1
b011 6
#197
0)
#198
1$
b011 %
1)
b00000000000000000000000010010100 2
b010 6
#199
0)
#200
b00000000000000000000000011000100 #
0$
b010 %
b0000000000110001 &
b00000000000000000000000011000100 (
1)
b00000000000000000000000011000100 1
b011 6
#201
0)
#202
1$
b011 %
1)
b00000000000000000000000010010101 2
b010 6
#203
0)
#204
b00000000000000000000000011001000 #
0$
b010 %
b0000000000110010 &
b00000000000000000000000011001000 (
1)
b00000000000000000000000011001000 1
b011 6
#205
0)
#206
1$
b011 %
1)
b00000000000000000000000010001100 2
b010 6
#207
0)
#208
b00000000000000000000000011001100 #
0$
b010 %
b0000000000110011 &
b00000000000000000000000011001100 (
1)
b00000000000000000000000011001100 1
b011 6
#209
0)
#210
1$
b011 %
1)
b00000000000000000000000010001101 2
b010 6
#211
0)
#212
b00000000000000000000000011010000 #
0$
b010 %
b0000000000110100 &
b00000000000000000000000011010000 (
1)
b00000000000000000000000011010000 1
b011 6
#213
0)
#214
1$
b011 %
1)
b00000000000000000000000010001110 2
b010 6
#215
0)
#216
b00000000000000000000000011010100 #
0$
b010 %
b0000000000110101 &
b00000000000000000000000011010100 (
1)
b00000000000000000000000011010100 1
b011 6
#217
0)
#218
1$
b011 %
1)
b00000000000000000000000010001111 2
b010 6
#219
0)
#220
b00000000000000000000000011011000 #
0$
b010 %
b0000000000110110 &
b00000000000000000000000011011000 (
1)
b00000000000000000000000011011000 1
b011 6
#221
0)
#222
1$
b011 %
1)
b00000000000000000000000010010000 2
b010 6
#223
0)
#224
b00000000000000000000000011011100 #
0$
b010 %
b0000000000110111 &
b00000000000000000000000011011100 (
1)
b00000000000000000000000011011100 1
b011 6
#225
0)
#226
1$
b011 %
1)
b00000000000000000000000010010001 2
b010 6
#227
0)
#228
b00000000000000000000000011100000 #
0$
b010 %
b0000000000111000 &
b00000000000000000000000011100000 (
1)
b00000000000000000000000011100000 1
b011 6
#229
0)
#230
1$
b011 %
1)
b00000000000000000000000010010010 2
b010 6
#231
0)
#232
b00000000000000000000000011100100 #
0$
b010 %
b0000000000111001 &
b00000000000000000000000011100100 (
1)
b00000000000000000000000011100100 1
b011 6
#233
0)
#234
1$
b011 %
1)
b00000000000000000000000010010011 2
b010 6
#235
0)
#236
b00000000000000000000000011101000 #
0$
b010 %
b0000000000111010 &
b00000000000000000000000011101000 (
1)
b00000000000000000000000011101000 1
b011 6
#237
0)
#238
1$
b011 %
1)
b00000000000000000000000010010100 2
b010 6
#239
0)
#240
b00000000000000000000000011101100 #
0$
b010 %
b0000000000111011 &
b00000000000000000000000011101100 (
1)
b00000000000000000000000011101100 1
b011 6
#241
0)
#242
1$
b011 %
1)
b00000000000000000000000010010101 2
b010 6
#243
0)
#244
b00000000000000000000000011110000 #
0$
b010 %
b0000000000111100 &
b00000000000000000000000011110000 (
1)
b00000000000000000000000011110000 1
b011 6
#245
0)
#246
1$
b011 %
1)
b00000000000000000000000010001100 2
b010 6
#247
0)
#248
b00000000000000000000000011110100 #
0$
b010 %
b0000000000111101 &
b00000000000000000000000011110100 (
1)
b00000000000000000000000011110100 1
b011 6
#249
0)
#250
1$
b011 %
1)
b00000000000000000000000010001101 2
b010 6
#251
0)
#252
b00000000000000000000000011111000 #
0$
b010 %
b0000000000111110 &
b00000000000000000000000011111000 (
1)
b00000000000000000000000011111000 1
b011 6
#253
0)
#254
1$
b011 %
1)
b00000000000000000000000010001110 2
b010 6
#255
0)
#256
b00000000000000000000000011111100 #
0$
b010 %
b0000000000111111 &
b00000000000000000000000011111100 (
1)
b00000000000000000000000011111100 1
b011 6
#257
0)
#258
1$
b011 %
1)
b00000000000000000000000010001111 2
b010 6
#259
0)
#260
b00000000000000000000000100000000 #
0$
b010 %
b0000000001000000 &
b00000000000000000000000100000000 (
1)
b00000000000000000000000100000000 1
b011 6
#261
0)
#262
1$
b011 %
1)
b00000000000000000000000010010000 2
b010 6
#263
0)
#264
b00000000000000000000000100000100 #
0$
b010 %
b0000000001000001 &
b00000000000000000000000100000100 (
1)
b00000000000000000000000100000100 1
b011 6
#265
0)
#266
1$
b011 %
1)
b00000000000000000000000010010001 2
b010 6
#267
0)
#268
b00000000000000000000000100001000 #
0$
b010 %
b0000000001000010 &
b00000000000000000000000100001000 (
1)
b00000000000000000000000100001000 1
b011 6
#269
0)
#270
1$
b011 %
1)
b00000000000000000000000010010010 2
b010 6
#271
0)
#272
b00000000000000000000000100001100 #
0$
b010 %
b0000000001000011 &
b00000000000000000000000100001100 (
1)
b00000000000000000000000100001100 1
b011 6
#273
0)
#274
1$
b011 %
1)
b00000000000000000000000010010011 2
b010 6
#275
0)
#276
b00000000000000000000000100010000 #
0$
b010 %
b0000000001000100 &
b00000000000000000000000100010000 (
1)
b00000000000000000000000100010000 1
b011 6
#277
0)
#278
1$
b011 %
1)
b00000000000000000000000010010100 2
b010 6
#279
0)
#280
b00000000000000000000000100010100 #
0$
b010 %
b0000000001000101 &
b00000000000000000000000100010100 (
1)
b00000000000000000000000100010100 1
b011 6
#281
0)
#282
1$
b011 %
1)
b00000000000000000000000010010101 2
b010 6
#283
0)
#284
b00000000000000000000000100011000 #
0$
b010 %
b0000000001000110 &
b00000000000000000000000100011000 (
1)
b00000000000000000000000100011000 1
b011 6
#285
0)
#286
1$
b011 %
1)
b00000000000000000000000010001100 2
b010 6
#287
0)
#288
b00000000000000000000000100011100 #
0$
b010 %
b0000000001000111 &
b00000000000000000000000100011100 (
1)
b00000000000000000000000100011100 1
b011 6
#289
0)
#290
1$
b011 %
1)
b00000000000000000000000010001101 2
b010 6
#291
0)
#292
b00000000000000000000000100100000 #
0$
b010 %
b0000000001001000 &
b00000000000000000000000100100000 (
1)
b00000000000000000000000100100000 1
b011 6
#293
0)
#294
1$
b011 %
1)
b00000000000000000000000010001110 2
b010 6
#295
0)
#296
b00000000000000000000000100100100 #
0$
b010 %
b0000000001001001 &
b00000000000000000000000100100100 (
1)
b00000000000000000000000100100100 1
b011 6
#297
0)
#298
1$
b011 %
1)
b00000000000000000000000010001111 2
b010 6
#299
0)
#300
b00000000000000000000000100101000 #
0$
b010 %
b0000000001001010 &
b00000000000000000000000100101000 (
1)
b00000000000000000000000100101000 1
b011 6
#301
0)
#302
1$
b011 %
1)
b00000000000000000000000010010000 2
b010 6
#303
0)
#304
b00000000000000000000000100101100 #
0$
b010 %
b0000000001001011 &
b00000000000000000000000100101100 (
1)
b00000000000000000000000100101100 1
b011 6
#305
0)
#306
1$
b011 %
1)
b00000000000000000000000010010001 2
b010 6
#307
0)
#308
b00000000000000000000000100110000 #
0$
b010 %
b0000000001001100 &
b00000000000000000000000100110000 (
1)
b00000000000000000000000100110000 1
b011 6
#309
0)
#310
1$
b011 %
1)
b00000000000000000000000010010010 2
b010 6
#311
0)
#312
b00000000000000000000000100110100 #
0$
b010 %
b0000000001001101 &
b00000000000000000000000100110100 (
1)
b00000000000000000000000100110100 1
b011 6
#313
0)
#314
1$
b011 %
1)
b00000000000000000000000010010011 2
b010 6
#315
0)
#316
b00000000000000000000000100111000 #
0$
b010 %
b0000000001001110 &
b00000000000000000000000100111000 (
1)
b00000000000000000000000100111000 1
b011 6
#317
0)
#318
1$
b011 %
1)
b00000000000000000000000010010100 2
b010 6
#319
0)
#320
b00000000000000000000000100111100 #
0$
b010 %
b0000000001001111 &
b00000000000000000000000100111100 (
1)
b00000000000000000000000100111100 1
b011 6
#321
0)
#322
1$
b011 %
1)
b00000000000000000000000010010101 2
b010 6
#323
0)
#324
b00000000000000000000000101000000 #
0$
b010 %
b0000000001010000 &
b00000000000000000000000101000000 (
1)
b00000000000000000000000101000000 1
b011 6
#325
0)
#326
1$
b011 %
1)
b00000000000000000000000010001100 2
b010 6
#327
0)
#328
b00000000000000000000000101000100 #
0$
b010 %
b0000000001010001 &
b00000000000000000000000101000100 (
1)
b00000000000000000000000101000100 1
b011 6
#329
0)
#330
1$
b011 %
1)
b00000000000000000000000010001101 2
b010 6
#331
0)
#332
b00000000000000000000000101001000 #
0$
b010 %
b0000000001010010 &
b00000000000000000000000101001000 (
1)
b00000000000000000000000101001000 1
b011 6
#333
0)
#334
1$
b011 %
1)
b00000000000000000000000010001110 2
b010 6
#335
0)
#336
b00000000000000000000000101001100 #
0$
b010 %
b0000000001010011 &
b00000000000000000000000101001100 (
1)
b00000000000000000000000101001100 1
b011 6
#337
0)
#338
1$
b011 %
1)
b00000000000000000000000010001111 2
b010 6
#339
0)
#340
b00000000000000000000000101010000 #
0$
b010 %
b0000000001010100 &
b00000000000000000000000101010000 (
1)
b00000000000000000000000101010000 1
b011 6
#341
0)
#342
1$
b011 %
1)
b00000000000000000000000010010000 2
b010 6
#343
0)
#344
b00000000000000000000000101010100 #
0$
b010 %
b0000000001010101 &
b00000000000000000000000101010100 (
1)
b00000000000000000000000101010100 1
b011 6
#345
0)
#346
1$
b011 %
1)
b00000000000000000000000010010001 2
b010 6
#347
0)
#348
b00000000000000000000000101011000 #
0$
b010 %
b0000000001010110 &
b00000000000000000000000101011000 (
1)
b00000000000000000000000101011000 1
b011 6
#349
0)
#350
1$
b011 %
1)
b00000000000000000000000010010010 2
b010 6
#351
0)
#352
b00000000000000000000000101011100 #
0$
b010 %
b0000000001010111 &
b00000000000000000000000101011100 (
1)
b00000000000000000000000101011100 1
b011 6
#353
0)
#354
1$
b011 %
1)
b00000000000000000000000010010011 2
b010 6
#355
0)
#356
b00000000000000000000000101100000 #
0$
b010 %
b0000000001011000 &
b00000000000000000000000101100000 (
1)
b00000000000000000000000101100000 1
b011 6
#357
0)
#358
1$
b011 %
1)
b00000000000000000000000010010100 2
b010 6
#359
0)
#360
b00000000000000000000000101100100 #
0$
b010 %
b0000000001011001 &
b00000000000000000000000101100100 (
1)
b00000000000000000000000101100100 1
b011 6
#361
0)
#362
1$
b011 %
1)
b00000000000000000000000010010101 2
b010 6
#363
0)
#364
b00000000000000000000000101101000 #
0$
b010 %
b0000000001011010 &
b00000000000000000000000101101000 (
1)
b00000000000000000000000101101000 1
b011 6
#365
0)
#366
1$
b011 %
1)
b00000000000000000000000010001100 2
b010 6
#367
0)
#368
b00000000000000000000000101101100 #
0$
b010 %
b0000000001011011 &
b00000000000000000000000101101100 (
1)
b00000000000000000000000101101100 1
b011 6
#369
0)
#370
1$
b011 %
1)
b00000000000000000000000010001101 2
b010 6
#371
0)
#372
b00000000000000000000000101110000 #
0$
b010 %
b0000000001011100 &
b00000000000000000000000101110000 (
1)
b00000000000000000000000101110000 1
b011 6
#373
0)
#374
1$
b011 %
1)
b00000000000000000000000010001110 2
b010 6
#375
0)
#376
b00000000000000000000000101110100 #
0$
b010 %
b0000000001011101 &
b00000000000000000000000101110100 (
1)
b00000000000000000000000101110100 1
b011 6
#377
0)
#378
1$
b011 %
1)
b00000000000000000000000010001111 2
b010 6
#379
0)
#380
b00000000000000000000000101111000 #
0$
b010 %
b0000000001011110 &
b00000000000000000000000101111000 (
1)
b00000000000000000000000101111000 1
b011 6
#381
0)
#382
1$
b011 %
1)
b00000000000000000000000010010000 2
b010 6
#383
0)
#384
b00000000000000000000000101111100 #
0$
b010 %
b0000000001011111 &
b00000000000000000000000101111100 (
1)
b00000000000000000000000101111100 1
b011 6
#385
0)
#386
1$
b011 %
1)
b00000000000000000000000010010001 2
b010 6
#387
0)
#388
b00000000000000000000000110000000 #
0$
b010 %
b0000000001100000 &
b00000000000000000000000110000000 (
1)
b00000000000000000000000110000000 1
b011 6
#389
0)
#390
1$
b011 %
1)
b00000000000000000000000010010010 2
b010 6
#391
0)
#392
b00000000000000000000000110000100 #
0$
b010 %
b0000000001100001 &
b00000000000000000000000110000100 (
1)
b00000000000000000000000110000100 1
b011 6
#393
0)
#394
1$
b011 %
1)
b00000000000000000000000010010011 2
b010 6
#395
0)
#396
b00000000000000000000000110001000 #
0$
b010 %
b0000000001100010 &
b00000000000000000000000110001000 (
1)
b00000000000000000000000110001000 1
b011 6
#397
0)
#398
1$
b011 %
1)
b00000000000000000000000010010100 2
b010 6
#399
0)
#400
b00000000000000000000000110001100 #
0$
b010 %
b0000000001100011 &
b00000000000000000000000110001100 (
1)
b00000000000000000000000110001100 1
b011 6
#401
0)
#402
1$
b011 %
1)
b00000000000000000000000010010101 2
b010 6
#403
0)
#404
b00000000000000000000000110010000 #
0$
b010 %
b0000000001100100 &
b00000000000000000000000110010000 (
1)
b00000000000000000000000110010000 1
b011 6
#405
0)
#406
1$
b011 %
1)
b00000000000000000000000001100100 2
b010 6
#407
0)
#408
b00000000000000000000000110010100 #
0$
b010 %
b0000000001100101 &
b00000000000000000000000110010100 (
1)
b00000000000000000000000110010100 1
b011 6
#409
0)
#410
1$
b011 %
1)
b00000000000000000000000001100101 2
b010 6
#411
0)
#412
b00000000000000000000000110011000 #
0$
b010 %
b0000000001100110 &
b00000000000000000000000110011000 (
1)
b00000000000000000000000110011000 1
b011 6
#413
0)
#414
1$
b011 %
1)
b00000000000000000000000001100110 2
b010 6
#415
0)
#416
b00000000000000000000000110011100 #
0$
b010 %
b0000000001100111 &
b00000000000000000000000110011100 (
1)
b00000000000000000000000110011100 1
b011 6
#417
0)
#418
1$
b011 %
1)
b00000000000000000000000001100111 2
b010 6
#419
0)
#420
b00000000000000000000000110100000 #
0$
b010 %
b0000000001101000 &
b00000000000000000000000110100000 (
1)
b00000000000000000000000110100000 1
b011 6
#421
0)
#422
1$
b011 %
1)
b00000000000000000000000001101000 2
b010 6
#423
0)
#424
b00000000000000000000000110100100 #
0$
b010 %
b0000000001101001 &
b00000000000000000000000110100100 (
1)
b00000000000000000000000110100100 1
b011 6
#425
0)
#426
1$
b011 %
1)
b00000000000000000000000001101001 2
b010 6
#427
0)
#428
b00000000000000000000000110101000 #
0$
b010 %
b0000000001101010 &
b00000000000000000000000110101000 (
1)
b00000000000000000000000110101000 1
b011 6
#429
0)
#430
1$
b011 %
1)
b00000000000000000000000001101010 2
b010 6
#431
0)
#432
b00000000000000000000000110101100 #
0$
b010 %
b0000000001101011 &
b00000000000000000000000110101100 (
1)
b00000000000000000000000110101100 1
b011 6
#433
0)
#434
1$
b011 %
1)
b00000000000000000000000001101011 2
b010 6
#435
0)
#436
b00000000000000000000000110110000 #
0$
b010 %
b0000000001101100 &
b00000000000000000000000110110000 (
1)
b00000000000000000000000110110000 1
b011 6
#437
0)
#438
1$
b011 %
1)
b00000000000000000000000001101100 2
b010 6
#439
0)
#440
b00000000000000000000000110110100 #
0$
b010 %
b0000000001101101 &
b00000000000000000000000110110100 (
1)
b00000000000000000000000110110100 1
b011 6
#441
0)
#442
1$
b011 %
1)
b00000000000000000000000001101101 2
b010 6
#443
0)
